<svg width="14" height="18" viewBox="0 0 14 18" fill="none" xmlns="http://www.w3.org/2000/svg">
<path d="M7 0C10.86 0 14 3.02818 14 6.75C14 11.7297 7.54155 17.6484 7.26658 17.8982C7.19141 17.9659 7.0957 18 7 18C6.9043 18 6.80859 17.9659 6.73338 17.8982C6.45845 17.6484 0 11.7297 0 6.75C0 3.02818 3.13997 0 7 0ZM7 10.5C9.14422 10.5 10.8889 8.81764 10.8889 6.75C10.8889 4.68236 9.14419 2.99999 7 2.99999C4.85581 2.99999 3.1111 4.68239 3.1111 6.75C3.1111 8.81761 4.85578 10.5 7 10.5Z"/>
</svg>
